{
    "/css/admin-style.css": "/css/admin-style.css",
    "/css/frontend-style.css": "/css/frontend-style.css",
    "/css/error.css": "/css/error.css",
    "/css/admin.css": "/css/admin.css",
    "/js/admin.js": "/js/admin.js",
    "/css/adminlte.min.css.map": "/css/adminlte.min.css.map",
    "/css/front.css": "/css/front.css",
    "/js/front.js": "/js/front.js"
}
